﻿"Gemiddelde WOZ-waarde van woningen op 1 januari; eigendom, regio "
"Onderwerp: |Gemiddelde WOZ-waarde van woningen"
""
"Perioden";"2022**";"2022**";"2022**";"2022**"
"Eigendom";"Totaal";"Koopwoningen";"Huurwoning in bezit woningcorporatie";"Eigendom overige verhuurders"
"Regio's";"1 000 euro";"1 000 euro";"1 000 euro";"1 000 euro"
"Nederland";"317";"378";"211";"279"
"Groningen (PV)";"229";"277";"154";"198"
"Fryslân (PV)";"241";"290";"146";"187"
"Drenthe (PV)";"255";"302";"147";"196"
"Overijssel (PV)";"280";"337";"177";"223"
"Flevoland (PV)";"292";"332";"201";"265"
"Gelderland (PV)";"310";"371";"197";"252"
"Utrecht (PV)";"382";"457";"256";"314"
"Noord-Holland (PV)";"394";"471";"277";"381"
"Zuid-Holland (PV)";"311";"388";"210";"262"
"Zeeland (PV)";"248";"287";"149";"205"
"Noord-Brabant (PV)";"323";"385";"208";"266"
"Limburg (PV)";"246";"295";"153";"203"
"Aa en Hunze";"298";"340";"140";"285"
"Aalsmeer";"427";"498";"278";"337"
"Aalten";"265";"295";"174";"225"
"Achtkarspelen";"226";"270";"140";"197"
"Alblasserdam";"274";"327";"175";"281"
"Albrandswaard";"365";"419";"227";"322"
"Alkmaar";"287";"346";"197";"223"
"Almelo";"225";"281";"148";"188"
"Almere";"310";"348";"229";"280"
"Alphen aan den Rijn";"309";"362";"205";"242"
"Alphen-Chaam";"397";"437";"213";"."
"Altena";"320";"363";"207";"281"
"Ameland";"311";"351";"";"229"
"Amersfoort";"367";"441";"256";"282"
"Amstelveen";"470";"608";"315";"384"
"Amsterdam";"434";"582";"324";"436"
"Apeldoorn";"306";"370";"195";"241"
"Appingedam";"";"";"";""
"Arnhem";"265";"348";"185";"225"
"Assen";"238";"286";"160";"174"
"Asten";"364";"411";"215";"355"
"Baarle-Nassau";"361";"403";"207";"295"
"Baarn";"411";"505";"248";"282"
"Barendrecht";"368";"409";"251";"328"
"Barneveld";"376";"439";"219";"279"
"Beek (L.)";"252";"290";"150";"192"
"Beekdaelen";"263";"296";"149";"221"
"Beemster";"";"";"";""
"Beesel";"252";"288";"169";"219"
"Berg en Dal";"304";"364";"195";"244"
"Bergeijk";"385";"424";"194";"328"
"Bergen (L.)";"281";"313";"172";"320"
"Bergen (NH.)";"477";"561";"263";"356"
"Bergen op Zoom";"270";"322";"178";"236"
"Berkelland";"299";"345";"174";"281"
"Bernheze";"374";"425";"221";"296"
"Best";"359";"404";"227";"297"
"Beuningen";"329";"375";"203";"270"
"Beverwijk";"286";"344";"216";"216"
"De Bilt";"473";"592";"272";"306"
"Bladel";"367";"410";"213";"286"
"Blaricum";"731";"867";"308";"742"
"Bloemendaal";"830";"985";"326";"636"
"Bodegraven-Reeuwijk";"381";"427";"247";"308"
"Boekel";"344";"383";"183";"301"
"Borger-Odoorn";"253";"285";"139";"233"
"Borne";"313";"354";"200";"271"
"Borsele";"265";"292";"169";"247"
"Boxmeer";"";"";"";""
"Boxtel";"324";"391";"188";"279"
"Breda";"336";"426";"209";"256"
"Brielle";"306";"344";"210";"276"
"Bronckhorst";"352";"399";"199";"295"
"Brummen";"311";"376";"188";"267"
"Brunssum";"188";"219";"126";"170"
"Bunnik";"435";"481";"268";"348"
"Bunschoten";"374";"409";"251";"289"
"Buren";"380";"420";"224";"377"
"Capelle aan den IJssel";"270";"336";"180";"230"
"Castricum";"405";"452";"242";"292"
"Coevorden";"250";"293";"137";"200"
"Cranendonck";"328";"368";"184";"270"
"Cuijk";"";"";"";""
"Culemborg";"308";"354";"224";"226"
"Dalfsen";"356";"392";"223";"299"
"Dantumadiel";"248";"301";"147";"224"
"Delft";"288";"404";"201";"258"
"Delfzijl";"";"";"";""
"Deurne";"340";"389";"223";"290"
"Deventer";"272";"340";"178";"207"
"Diemen";"365";"467";"275";"311"
"Dijk en Waard";"312";"350";"205";"239"
"Dinkelland";"340";"380";"166";"275"
"Doesburg";"253";"314";"176";"220"
"Doetinchem";"259";"317";"158";"208"
"Dongen";"305";"344";"192";"256"
"Dordrecht";"248";"308";"151";"192"
"Drechterland";"336";"381";"206";"227"
"Drimmelen";"337";"376";"215";"319"
"Dronten";"284";"324";"179";"254"
"Druten";"314";"358";"200";"."
"Duiven";"291";"328";"203";"264"
"Echt-Susteren";"260";"290";"157";"236"
"Edam-Volendam";"363";"393";"241";"317"
"Ede";"335";"393";"202";"251"
"Eemnes";"444";"490";"284";"455"
"Eemsdelta";"182";"218";"129";"140"
"Eersel";"397";"447";"218";"322"
"Eijsden-Margraten";"317";"346";"188";"235"
"Eindhoven";"314";"394";"242";"267"
"Elburg";"307";"355";"209";"236"
"Emmen";"208";"252";"124";"170"
"Enkhuizen";"269";"317";"192";"202"
"Enschede";"235";"303";"167";"184"
"Epe";"356";"428";"194";"309"
"Ermelo";"369";"431";"227";"."
"Etten-Leur";"311";"357";"214";"268"
"De Fryske Marren";"284";"324";"163";"272"
"Geertruidenberg";"292";"337";"205";"."
"Geldrop-Mierlo";"329";"384";"207";"266"
"Gemert-Bakel";"340";"391";"211";"275"
"Gennep";"290";"331";"181";"279"
"Gilze en Rijen";"314";"363";"212";"270"
"Goeree-Overflakkee";"290";"339";"182";"276"
"Goes";"266";"321";"175";"199"
"Goirle";"352";"402";"209";"320"
"Gooise Meren";"503";"634";"254";"299"
"Gorinchem";"261";"342";"173";"206"
"Gouda";"276";"331";"200";"224"
"Grave";"";"";"";""
"'s-Gravenhage (gemeente)";"311";"425";"205";"257"
"Groningen (gemeente)";"252";"338";"180";"209"
"Gulpen-Wittem";"285";"332";"158";"227"
"Haaksbergen";"302";"349";"176";"240"
"Haaren";"";"";"";""
"Haarlem";"417";"514";"280";"355"
"Haarlemmermeer";"397";"446";"275";"350"
"Halderberge";"302";"355";"191";"263"
"Hardenberg";"273";"309";"170";"223"
"Harderwijk";"319";"380";"212";"265"
"Hardinxveld-Giessendam";"290";"335";"188";"276"
"Harlingen";"208";"255";"138";"164"
"Hattem";"349";"417";"207";"252"
"Heemskerk";"339";"401";"229";"291"
"Heemstede";"593";"734";"310";"356"
"Heerde";"340";"389";"201";"296"
"Heerenveen";"269";"327";"162";"."
"Heerhugowaard";"";"";"";""
"Heerlen";"171";"219";"119";"145"
"Heeze-Leende";"412";"455";"206";"352"
"Heiloo";"420";"476";"245";"297"
"Den Helder";"185";"223";"136";"154"
"Hellendoorn";"328";"365";"204";"327"
"Hellevoetsluis";"271";"313";"178";"268"
"Helmond";"275";"349";"180";"225"
"Hendrik-Ido-Ambacht";"333";"375";"206";"318"
"Hengelo (O.)";"243";"300";"164";"179"
"'s-Hertogenbosch";"341";"419";"233";"304"
"Heumen";"351";"400";"193";"."
"Heusden";"344";"395";"217";"300"
"Hillegom";"346";"395";"231";"292"
"Hilvarenbeek";"389";"432";"222";"."
"Hilversum";"398";"510";"259";"276"
"Hoeksche Waard";"309";"347";"200";"287"
"Hof van Twente";"307";"352";"182";"252"
"Het Hogeland";"214";"247";"128";"188"
"Hollands Kroon";"290";"327";"178";"272"
"Hoogeveen";"221";"266";"140";"164"
"Hoorn";"288";"338";"200";"246"
"Horst aan de Maas";"295";"326";"185";"221"
"Houten";"418";"475";"275";"366"
"Huizen";"392";"487";"244";"315"
"Hulst";"246";"276";"137";"222"
"IJsselstein";"346";"404";"204";"240"
"Kaag en Braassem";"379";"439";"257";"305"
"Kampen";"275";"322";"185";"209"
"Kapelle";"291";"320";"185";"204"
"Katwijk";"364";"414";"261";"314"
"Kerkrade";"171";"211";"124";"123"
"Koggenland";"332";"366";"201";"213"
"Krimpen aan den IJssel";"316";"365";"237";"."
"Krimpenerwaard";"331";"382";"217";"269"
"Laarbeek";"340";"389";"206";"291"
"Land van Cuijk";"302";"346";"188";"254"
"Landerd";"";"";"";""
"Landgraaf";"212";"247";"140";"184"
"Landsmeer";"492";"562";"305";"511"
"Langedijk";"";"";"";""
"Lansingerland";"410";"453";"253";"374"
"Laren (NH.)";"781";"929";"385";"554"
"Leeuwarden";"204";"268";"129";"149"
"Leiden";"345";"454";"250";"287"
"Leiderdorp";"362";"414";"253";"298"
"Leidschendam-Voorburg";"340";"422";"196";"273"
"Lelystad";"259";"307";"166";"224"
"Leudal";"281";"307";"154";"235"
"Leusden";"391";"437";"257";"327"
"Lingewaard";"326";"366";"199";"260"
"Lisse";"357";"416";"257";"236"
"Lochem";"373";"432";"194";"279"
"Loon op Zand";"312";"360";"203";"260"
"Lopik";"384";"424";"233";"330"
"Loppersum";"";"";"";""
"Losser";"296";"335";"172";"265"
"Maasdriel";"348";"388";"214";"337"
"Maasgouw";"272";"295";"160";"258"
"Maashorst";"336";"395";"201";"292"
"Maassluis";"266";"322";"195";"232"
"Maastricht";"258";"353";"169";"233"
"Medemblik";"325";"369";"203";"280"
"Meerssen";"299";"341";"171";"230"
"Meierijstad";"345";"394";"208";"286"
"Meppel";"249";"308";"160";"193"
"Middelburg (Z.)";"231";"281";"144";"171"
"Midden-Delfland";"419";"470";"261";"337"
"Midden-Drenthe";"265";"305";"156";"219"
"Midden-Groningen";"206";"247";"127";"172"
"Mill en Sint Hubert";"";"";"";""
"Moerdijk";"282";"322";"194";"242"
"Molenlanden";"345";"397";"207";"323"
"Montferland";"253";"297";"149";"199"
"Montfoort";"370";"408";"240";"279"
"Mook en Middelaar";"349";"390";"186";"291"
"Neder-Betuwe";"309";"356";"204";"295"
"Nederweert";"315";"357";"175";"283"
"Nieuwegein";"292";"337";"220";"253"
"Nieuwkoop";"378";"421";"244";"322"
"Nijkerk";"387";"433";"254";"346"
"Nijmegen";"308";"395";"220";"290"
"Nissewaard";"242";"285";"175";"219"
"Noardeast-Fryslân";"232";"266";"154";"187"
"Noord-Beveland";"270";"287";"146";"."
"Noordenveld";"300";"342";"181";"."
"Noordoostpolder";"262";"302";"157";"245"
"Noordwijk";"431";"506";"279";"326"
"Nuenen, Gerwen en Nederwetten";"403";"454";"211";"306"
"Nunspeet";"353";"412";"229";"271"
"Oegstgeest";"502";"572";"271";"391"
"Oirschot";"416";"455";"233";"."
"Oisterwijk";"413";"479";"230";"."
"Oldambt";"207";"239";"136";"176"
"Oldebroek";"325";"375";"200";"241"
"Oldenzaal";"280";"336";"174";"232"
"Olst-Wijhe";"320";"371";"189";"235"
"Ommen";"319";"361";"188";"261"
"Oost Gelre";"261";"288";"160";"213"
"Oosterhout";"306";"360";"204";"281"
"Ooststellingwerf";"263";"309";"153";"241"
"Oostzaan";"411";"482";"262";"286"
"Opmeer";"321";"358";".";"208"
"Opsterland";"287";"325";"169";"."
"Oss";"296";"350";"196";"232"
"Oude IJsselstreek";"271";"313";"169";"249"
"Ouder-Amstel";"507";"619";"352";"419"
"Oudewater";"369";"415";"233";"324"
"Overbetuwe";"327";"375";"207";"264"
"Papendrecht";"276";"323";"181";"232"
"Peel en Maas";"299";"332";"183";"268"
"Pekela";"167";"192";"108";"144"
"Pijnacker-Nootdorp";"403";"448";"259";"351"
"Purmerend";"329";"381";"240";"290"
"Putten";"412";"482";"253";"301"
"Raalte";"317";"363";"199";"257"
"Reimerswaal";"235";"266";"148";"204"
"Renkum";"338";"411";"206";"217"
"Renswoude";"403";"448";"";"272"
"Reusel-De Mierden";"377";"417";"207";"292"
"Rheden";"280";"347";"181";"210"
"Rhenen";"358";"424";"207";"324"
"Ridderkerk";"286";"330";"221";"281"
"Rijssen-Holten";"314";"356";"204";"255"
"Rijswijk (ZH.)";"302";"387";"209";"235"
"Roerdalen";"261";"285";"166";"."
"Roermond";"244";"298";"159";"211"
"De Ronde Venen";"440";"509";"277";"372"
"Roosendaal";"259";"310";"162";"205"
"Rotterdam";"275";"364";"214";"256"
"Rozendaal";"612";"646";"284";"387"
"Rucphen";"314";"364";"195";"332"
"Schagen";"311";"349";"203";"270"
"Scherpenzeel";"347";"383";"233";"280"
"Schiedam";"248";"309";"182";"196"
"Schiermonnikoog";"331";"387";"222";"306"
"Schouwen-Duiveland";"303";"347";"173";"321"
"Simpelveld";"212";"256";"119";"."
"Sint Anthonis";"";"";"";""
"Sint-Michielsgestel";"393";"442";"210";"312"
"Sittard-Geleen";"218";"265";"138";"168"
"Sliedrecht";"255";"308";"173";"."
"Sluis";"268";"294";"149";"265"
"Smallingerland";"234";"285";"149";"179"
"Soest";"386";"469";"208";"264"
"Someren";"353";"402";"194";"330"
"Son en Breugel";"401";"446";"239";"324"
"Stadskanaal";"207";"246";"133";"185"
"Staphorst";"317";"345";"187";"241"
"Stede Broec";"294";"325";"213";"255"
"Steenbergen";"286";"320";"184";"260"
"Steenwijkerland";"270";"319";"154";"233"
"Stein (L.)";"244";"272";"157";"."
"Stichtse Vecht";"392";"453";"236";"."
"Súdwest-Fryslân";"251";"295";"146";"218"
"Terneuzen";"208";"244";"117";"153"
"Terschelling";"392";"434";"269";"373"
"Texel";"328";"378";"215";"256"
"Teylingen";"404";"467";"268";"307"
"Tholen";"228";"257";"145";"199"
"Tiel";"263";"316";"188";"212"
"Tilburg";"269";"339";"187";"221"
"Tubbergen";"359";"400";"190";"295"
"Twenterand";"278";"324";"169";"258"
"Tynaarlo";"341";"381";"181";"250"
"Tytsjerksteradiel";"249";"283";"147";"188"
"Uden";"";"";"";""
"Uitgeest";"363";"408";"244";"259"
"Uithoorn";"365";"420";"269";"330"
"Urk";"293";"314";"197";"."
"Utrecht (gemeente)";"392";"488";"287";"348"
"Utrechtse Heuvelrug";"427";"507";"232";"."
"Vaals";"189";"274";"126";"114"
"Valkenburg aan de Geul";"274";"331";"164";"193"
"Valkenswaard";"327";"390";"220";"259"
"Veendam";"180";"212";"111";"136"
"Veenendaal";"302";"366";"203";"224"
"Veere";"340";"360";"173";"344"
"Veldhoven";"375";"435";"223";"328"
"Velsen";"345";"431";"217";"288"
"Venlo";"241";"290";"159";"195"
"Venray";"276";"323";"180";"228"
"Vijfheerenlanden";"331";"389";"222";"278"
"Vlaardingen";"243";"307";"186";"186"
"Vlieland";"328";"419";"244";"305"
"Vlissingen";"199";"247";"132";"144"
"Voerendaal";"281";"319";"170";"."
"Voorschoten";"424";"506";"258";"310"
"Voorst";"361";"419";"218";"."
"Vught";"438";"533";"247";"299"
"Waadhoeke";"207";"239";"128";"164"
"Waalre";"420";"481";"231";"261"
"Waalwijk";"295";"349";"199";"252"
"Waddinxveen";"319";"372";"213";"260"
"Wageningen";"291";"433";"190";"183"
"Wassenaar";"663";"836";"288";"647"
"Waterland";"413";"471";"250";"414"
"Weert";"275";"317";"173";"232"
"Weesp";"402";"486";"279";"326"
"West Betuwe";"352";"393";"215";"."
"West Maas en Waal";"325";"368";"202";"249"
"Westerkwartier";"262";"300";"145";"199"
"Westerveld";"326";"365";"170";"301"
"Westervoort";"262";"306";"192";"212"
"Westerwolde";"235";"274";"127";"205"
"Westland";"373";"424";"247";"308"
"Weststellingwerf";"259";"308";"154";"201"
"Westvoorne";"430";"492";"224";"261"
"Wierden";"338";"379";"186";"301"
"Wijchen";"318";"362";"199";"287"
"Wijdemeren";"484";"553";"269";"422"
"Wijk bij Duurstede";"357";"397";"243";"322"
"Winterswijk";"253";"290";"137";"210"
"Woensdrecht";"292";"325";"181";"."
"Woerden";"355";"414";"223";"264"
"De Wolden";"325";"371";"160";"255"
"Wormerland";"349";"410";"225";"299"
"Woudenberg";"395";"439";"270";"305"
"Zaanstad";"312";"369";"235";"282"
"Zaltbommel";"322";"370";"197";"284"
"Zandvoort";"424";"537";"266";"."
"Zeewolde";"332";"371";"203";"345"
"Zeist";"440";"586";"256";"."
"Zevenaar";"265";"313";"163";"243"
"Zoetermeer";"290";"350";"209";"242"
"Zoeterwoude";"404";"447";"269";"333"
"Zuidplas";"347";"402";"209";"."
"Zundert";"357";"389";"227";"300"
"Zutphen";"254";"314";"167";"206"
"Zwartewaterland";"262";"299";"157";"195"
"Zwijndrecht";"256";"316";"168";"233"
"Zwolle";"298";"374";"199";"242"
"Bron: CBS"
